{
  "integrationFolder": "cypress/integration",
  "supportFile": "cypress/support/index.ts",
  "videosFolder": "cypress/videos",
  "screenshotsFolder": "cypress/screenshots",
  "pluginsFile": "cypress/plugins/index.js",
  "fixturesFolder": "cypress/fixtures",
  "baseUrl": "http://localhost:8000",
  "videoCompression": false,
  "experimentalStudio": true,
  "env": {
    "auth_base_url": "http://localhost:8080/auth",
    "auth_realm": "WgManager",
    "auth_client_id": "WgManager"
  }
}
