{
 "mailingslists": [
  {
   "uuid": "15d4a393-8604-4992-98dd-aee100af2982",
   "name": "test",
   "email": "gal@exmaple.org",
   "baseGroup": "24f54bc3-b599-4e22-be68-75ac8d817c66",
   "modifierGroup": "7a140cf2-c3a6-48f9-93b8-da2710a2acfb",
   "modifierGroupIsInclude": false,
   "valid": true
  }
 ],
 "workgroups": [
  {
   "uuid": "b8be9ffd-b15f-4ffa-9dbf-f6d001b29e78",
   "allowJoinLdapGroup": "1236b7d3-9eab-4072-b76b-5050ff7aefac",
   "excludeMailinglistLdapGroup": "7b7a3c0d-eab1-43cc-9d63-c72ef2a3f96d",
   "mail": "gal-debatte@exmaple.org",
   "matterMostLink": "",
   "memberLdapGroup": "7b7a3c0d-eab1-43cc-9d63-c72ef2a3f96d",
   "name": "test",
   "speakerLdapGroup": "7b7a3c0d-eab1-43cc-9d63-c72ef2a3f96d",
   "valid": true
  }
 ]
}